<?xml version="1.0"?> 
<VTKFile type="Collection" version="0.1" byte_order="LittleEndian"> 
<Collection> 
<DataSet timestep="0" group="" part="0" name="" file="Biot_Eq_own-00000.vtu"/> 
<DataSet timestep="0.1" group="" part="0" name="" file="Biot_Eq_own-00001.vtu"/> 
<DataSet timestep="0.2" group="" part="0" name="" file="Biot_Eq_own-00002.vtu"/> 
<DataSet timestep="0.3" group="" part="0" name="" file="Biot_Eq_own-00003.vtu"/> 
<DataSet timestep="0.4" group="" part="0" name="" file="Biot_Eq_own-00004.vtu"/> 
<DataSet timestep="0.5" group="" part="0" name="" file="Biot_Eq_own-00005.vtu"/> 
<DataSet timestep="0.6" group="" part="0" name="" file="Biot_Eq_own-00006.vtu"/> 
<DataSet timestep="0.7" group="" part="0" name="" file="Biot_Eq_own-00007.vtu"/> 
<DataSet timestep="0.8" group="" part="0" name="" file="Biot_Eq_own-00008.vtu"/> 
<DataSet timestep="0.9" group="" part="0" name="" file="Biot_Eq_own-00009.vtu"/> 
<DataSet timestep="1" group="" part="0" name="" file="Biot_Eq_own-00010.vtu"/> 
<DataSet timestep="1.1" group="" part="0" name="" file="Biot_Eq_own-00011.vtu"/> 
<DataSet timestep="1.2" group="" part="0" name="" file="Biot_Eq_own-00012.vtu"/> 
<DataSet timestep="1.3" group="" part="0" name="" file="Biot_Eq_own-00013.vtu"/> 
<DataSet timestep="1.4" group="" part="0" name="" file="Biot_Eq_own-00014.vtu"/> 
<DataSet timestep="1.5" group="" part="0" name="" file="Biot_Eq_own-00015.vtu"/> 
<DataSet timestep="1.6" group="" part="0" name="" file="Biot_Eq_own-00016.vtu"/> 
<DataSet timestep="1.7" group="" part="0" name="" file="Biot_Eq_own-00017.vtu"/> 
<DataSet timestep="1.8" group="" part="0" name="" file="Biot_Eq_own-00018.vtu"/> 
<DataSet timestep="1.9" group="" part="0" name="" file="Biot_Eq_own-00019.vtu"/> 
<DataSet timestep="2" group="" part="0" name="" file="Biot_Eq_own-00020.vtu"/> 
</Collection> 
</VTKFile> 
