0
0
0.01
5.93207
0.02
6.10881
0.03
6.1163
0.04
6.11662
0.05
6.11664
0.06
6.11664
0.07
6.11664
0.08
6.11664
0.09
6.11664
0.1
6.11664
0.11
6.11664
0.12
6.11664
0.13
6.11664
0.14
6.11664
0.15
6.11664
0.16
6.11664
0.17
6.11664
0.18
6.11664
0.19
6.11664
0.2
6.11664
0.21
6.11664
0.22
6.11664
0.23
6.11664
0.24
6.11664
0.25
6.11664
0.26
6.11664
0.27
6.11664
0.28
6.11664
0.29
6.11664
0.3
6.11664
0.31
6.11664
0.32
6.11664
0.33
6.11664
0.34
6.11664
0.35
6.11664
0.36
6.11664
0.37
6.11664
0.38
6.11664
0.39
6.11664
0.4
6.11664
0.41
6.11664
0.42
6.11664
0.43
6.11664
0.44
6.11664
0.45
6.11664
0.46
6.11664
0.47
6.11664
0.48
6.11664
0.49
6.11664
0.5
6.11664
0.51
6.11664
0.52
6.11664
0.53
6.11664
0.54
6.11664
0.55
6.11664
0.56
6.11664
0.57
6.11664
0.58
6.11664
0.59
6.11664
0.6
6.11664
0.61
6.11664
0.62
6.11664
0.63
6.11664
0.64
6.11664
0.65
6.11664
0.66
6.11664
0.67
6.11664
0.68
6.11664
0.69
6.11664
0.7
6.11664
0.71
6.11664
0.72
6.11664
0.73
6.11664
0.74
6.11664
0.75
6.11664
0.76
6.11664
0.77
6.11664
0.78
6.11664
0.79
6.11664
0.8
6.11664
0.81
6.11664
0.82
6.11664
0.83
6.11664
0.84
6.11664
0.85
6.11664
0.86
6.11664
0.87
6.11664
0.88
6.11664
0.89
6.11664
0.9
6.11664
0.91
6.11664
0.92
6.11664
0.93
6.11664
0.94
6.11664
0.95
6.11664
0.96
6.11664
0.97
6.11664
0.98
6.11664
0.99
6.11664
1
6.11664
1.01
6.11664
1.02
6.11664
1.03
6.11664
1.04
6.11664
1.05
6.11664
1.06
6.11664
1.07
6.11664
1.08
6.11664
1.09
6.11664
1.1
6.11664
1.11
6.11664
1.12
6.11664
1.13
6.11664
1.14
6.11664
1.15
6.11664
1.16
6.11664
1.17
6.11664
1.18
6.11664
1.19
6.11664
1.2
6.11664
1.21
6.11664
1.22
6.11664
1.23
6.11664
1.24
6.11664
1.25
6.11664
1.26
6.11664
1.27
6.11664
1.28
6.11664
1.29
6.11664
1.3
6.11664
1.31
6.11664
1.32
6.11664
1.33
6.11664
1.34
6.11664
1.35
6.11664
1.36
6.11664
1.37
6.11664
1.38
6.11664
1.39
6.11664
1.4
6.11664
1.41
6.11664
1.42
6.11664
1.43
6.11664
1.44
6.11664
1.45
6.11664
1.46
6.11664
1.47
6.11664
1.48
6.11664
1.49
6.11664
1.5
6.11664
1.51
6.11664
1.52
6.11664
1.53
6.11664
1.54
6.11664
1.55
6.11664
1.56
6.11664
1.57
6.11664
1.58
6.11664
1.59
6.11664
1.6
6.11664
1.61
6.11664
1.62
6.11664
1.63
6.11664
1.64
6.11664
1.65
6.11664
1.66
6.11664
1.67
6.11664
1.68
6.11664
1.69
6.11664
1.7
6.11664
1.71
6.11664
1.72
6.11664
1.73
6.11664
1.74
6.11664
1.75
6.11664
1.76
6.11664
1.77
6.11664
1.78
6.11664
1.79
6.11664
1.8
6.11664
1.81
6.11664
1.82
6.11664
1.83
6.11664
1.84
6.11664
1.85
6.11664
1.86
6.11664
1.87
6.11664
1.88
6.11664
1.89
6.11664
1.9
6.11664
1.91
6.11664
1.92
6.11664
1.93
6.11664
1.94
6.11664
1.95
6.11664
1.96
6.11664
1.97
6.11664
1.98
6.11664
1.99
6.11664
2
6.11664
2.01
0.184569
2.02
0.00782683
2.03
0.000341714
2.04
1.49554e-05
2.05
6.54051e-07
2.06
2.85778e-08
2.07
1.24777e-09
2.08
5.44207e-11
2.09
2.45806e-12
2.1
1.29229e-13
2.11
-3.54926e-14
2.12
-7.72813e-14
2.13
1.89348e-14
2.14
-9.85546e-15
2.15
2.72406e-14
2.16
-6.22779e-15
2.17
3.34658e-14
2.18
5.59996e-14
2.19
4.04309e-14
2.2
-4.09037e-14
2.21
5.1849e-14
2.22
8.39822e-15
2.23
-2.74198e-14
2.24
4.06416e-14
2.25
2.42065e-14
2.26
-3.2182e-14
2.27
-1.68381e-14
2.28
4.12516e-14
2.29
3.12179e-14
2.3
-3.30114e-14
2.31
7.04986e-15
2.32
7.11924e-15
2.33
9.05791e-15
2.34
-2.42838e-14
2.35
-1.37253e-14
2.36
-7.15405e-15
2.37
-8.65516e-15
2.38
9.12831e-15
2.39
4.56536e-14
2.4
3.08599e-14
2.41
-1.28491e-14
2.42
1.88779e-14
2.43
-1.9461e-14
2.44
-1.37105e-15
2.45
4.62828e-14
2.46
-3.4585e-15
2.47
5.43252e-14
2.48
-4.56423e-14
2.49
1.82066e-14
