0
0
0.01
10.541
0.02
10.8996
0.03
10.9149
0.04
10.9156
0.05
10.9156
0.06
10.9156
0.07
10.9156
0.08
10.9156
0.09
10.9156
0.1
10.9156
0.11
10.9156
0.12
10.9156
0.13
10.9156
0.14
10.9156
0.15
10.9156
0.16
10.9156
0.17
10.9156
0.18
10.9156
0.19
10.9156
0.2
10.9156
0.21
10.9156
0.22
10.9156
0.23
10.9156
0.24
10.9156
0.25
10.9156
0.26
10.9156
0.27
10.9156
0.28
10.9156
0.29
10.9156
0.3
10.9156
0.31
10.9156
0.32
10.9156
0.33
10.9156
0.34
10.9156
0.35
10.9156
0.36
10.9156
0.37
10.9156
0.38
10.9156
0.39
10.9156
0.4
10.9156
0.41
10.9156
0.42
10.9156
0.43
10.9156
0.44
10.9156
0.45
10.9156
0.46
10.9156
0.47
10.9156
0.48
10.9156
0.49
10.9156
0.5
10.9156
0.51
10.9156
0.52
10.9156
0.53
10.9156
0.54
10.9156
0.55
10.9156
0.56
10.9156
0.57
10.9156
0.58
10.9156
0.59
10.9156
0.6
10.9156
0.61
10.9156
0.62
10.9156
0.63
10.9156
0.64
10.9156
0.65
10.9156
0.66
10.9156
0.67
10.9156
0.68
10.9156
0.69
10.9156
0.7
10.9156
0.71
10.9156
0.72
10.9156
0.73
10.9156
0.74
10.9156
0.75
10.9156
0.76
10.9156
0.77
10.9156
0.78
10.9156
0.79
10.9156
0.8
10.9156
0.81
10.9156
0.82
10.9156
0.83
10.9156
0.84
10.9156
0.85
10.9156
0.86
10.9156
0.87
10.9156
0.88
10.9156
0.89
10.9156
0.9
10.9156
0.91
10.9156
0.92
10.9156
0.93
10.9156
0.94
10.9156
0.95
10.9156
0.96
10.9156
0.97
10.9156
0.98
10.9156
0.99
10.9156
1
10.9156
1.01
10.9156
1.02
10.9156
1.03
10.9156
1.04
10.9156
1.05
10.9156
1.06
10.9156
1.07
10.9156
1.08
10.9156
1.09
10.9156
1.1
10.9156
1.11
10.9156
1.12
10.9156
1.13
10.9156
1.14
10.9156
1.15
10.9156
1.16
10.9156
1.17
10.9156
1.18
10.9156
1.19
10.9156
1.2
10.9156
1.21
10.9156
1.22
10.9156
1.23
10.9156
1.24
10.9156
1.25
10.9156
1.26
10.9156
1.27
10.9156
1.28
10.9156
1.29
10.9156
1.3
10.9156
1.31
10.9156
1.32
10.9156
1.33
10.9156
1.34
10.9156
1.35
10.9156
1.36
10.9156
1.37
10.9156
1.38
10.9156
1.39
10.9156
1.4
10.9156
1.41
10.9156
1.42
10.9156
1.43
10.9156
1.44
10.9156
1.45
10.9156
1.46
10.9156
1.47
10.9156
1.48
10.9156
1.49
10.9156
1.5
10.9156
1.51
10.9156
1.52
10.9156
1.53
10.9156
1.54
10.9156
1.55
10.9156
1.56
10.9156
1.57
10.9156
1.58
10.9156
1.59
10.9156
1.6
10.9156
1.61
10.9156
1.62
10.9156
1.63
10.9156
1.64
10.9156
1.65
10.9156
1.66
10.9156
1.67
10.9156
1.68
10.9156
1.69
10.9156
1.7
10.9156
1.71
10.9156
1.72
10.9156
1.73
10.9156
1.74
10.9156
1.75
10.9156
1.76
10.9156
1.77
10.9156
1.78
10.9156
1.79
10.9156
1.8
10.9156
1.81
10.9156
1.82
10.9156
1.83
10.9156
1.84
10.9156
1.85
10.9156
1.86
10.9156
1.87
10.9156
1.88
10.9156
1.89
10.9156
1.9
10.9156
1.91
10.9156
1.92
10.9156
1.93
10.9156
1.94
10.9156
1.95
10.9156
1.96
10.9156
1.97
10.9156
1.98
10.9156
1.99
10.9156
2
10.9156
2.01
0.37462
2.02
0.0160251
2.03
0.00069872
2.04
3.05194e-05
2.05
1.33259e-06
2.06
5.81572e-08
2.07
2.53715e-09
2.08
1.10647e-10
2.09
5.08421e-12
2.1
2.65075e-13
2.11
-3.37386e-14
2.12
-2.23918e-14
2.13
-3.37162e-14
2.14
1.62027e-14
2.15
-1.36835e-14
2.16
1.05176e-14
2.17
-1.47535e-14
2.18
7.01107e-14
2.19
8.3944e-14
2.2
4.42683e-14
2.21
2.20967e-14
2.22
4.97564e-14
2.23
4.91962e-14
2.24
1.14344e-15
2.25
3.12602e-14
2.26
-1.02588e-14
2.27
-3.73007e-14
2.28
-1.69424e-15
2.29
-6.92631e-16
2.3
1.21167e-14
2.31
-1.52116e-15
2.32
-1.69366e-14
2.33
-7.21676e-15
2.34
1.21938e-14
2.35
1.81461e-14
2.36
2.73532e-14
2.37
-2.54472e-15
2.38
4.22137e-14
2.39
-3.08074e-14
2.4
7.14851e-14
2.41
2.05827e-15
2.42
2.83003e-14
2.43
3.2968e-14
2.44
-3.87118e-14
2.45
8.29355e-14
2.46
2.567e-14
2.47
4.41573e-14
2.48
5.02122e-14
2.49
3.70526e-14
