0
0
0.01
5.16419
0.02
5.3392
0.03
5.3467
0.04
5.34702
0.05
5.34704
0.06
5.34704
0.07
5.34704
0.08
5.34704
0.09
5.34704
0.1
5.34704
0.11
5.34704
0.12
5.34704
0.13
5.34704
0.14
5.34704
0.15
5.34704
0.16
5.34704
0.17
5.34704
0.18
5.34704
0.19
5.34704
0.2
5.34704
0.21
5.34704
0.22
5.34704
0.23
5.34704
0.24
5.34704
0.25
5.34704
0.26
5.34704
0.27
5.34704
0.28
5.34704
0.29
5.34704
0.3
5.34704
0.31
5.34704
0.32
5.34704
0.33
5.34704
0.34
5.34704
0.35
5.34704
0.36
5.34704
0.37
5.34704
0.38
5.34704
0.39
5.34704
0.4
5.34704
0.41
5.34704
0.42
5.34704
0.43
5.34704
0.44
5.34704
0.45
5.34704
0.46
5.34704
0.47
5.34704
0.48
5.34704
0.49
5.34704
0.5
5.34704
0.51
5.34704
0.52
5.34704
0.53
5.34704
0.54
5.34704
0.55
5.34704
0.56
5.34704
0.57
5.34704
0.58
5.34704
0.59
5.34704
0.6
5.34704
0.61
5.34704
0.62
5.34704
0.63
5.34704
0.64
5.34704
0.65
5.34704
0.66
5.34704
0.67
5.34704
0.68
5.34704
0.69
5.34704
0.7
5.34704
0.71
5.34704
0.72
5.34704
0.73
5.34704
0.74
5.34704
0.75
5.34704
0.76
5.34704
0.77
5.34704
0.78
5.34704
0.79
5.34704
0.8
5.34704
0.81
5.34704
0.82
5.34704
0.83
5.34704
0.84
5.34704
0.85
5.34704
0.86
5.34704
0.87
5.34704
0.88
5.34704
0.89
5.34704
0.9
5.34704
0.91
5.34704
0.92
5.34704
0.93
5.34704
0.94
5.34704
0.95
5.34704
0.96
5.34704
0.97
5.34704
0.98
5.34704
0.99
5.34704
1
5.34704
1.01
5.34704
1.02
5.34704
1.03
5.34704
1.04
5.34704
1.05
5.34704
1.06
5.34704
1.07
5.34704
1.08
5.34704
1.09
5.34704
1.1
5.34704
1.11
5.34704
1.12
5.34704
1.13
5.34704
1.14
5.34704
1.15
5.34704
1.16
5.34704
1.17
5.34704
1.18
5.34704
1.19
5.34704
1.2
5.34704
1.21
5.34704
1.22
5.34704
1.23
5.34704
1.24
5.34704
1.25
5.34704
1.26
5.34704
1.27
5.34704
1.28
5.34704
1.29
5.34704
1.3
5.34704
1.31
5.34704
1.32
5.34704
1.33
5.34704
1.34
5.34704
1.35
5.34704
1.36
5.34704
1.37
5.34704
1.38
5.34704
1.39
5.34704
1.4
5.34704
1.41
5.34704
1.42
5.34704
1.43
5.34704
1.44
5.34704
1.45
5.34704
1.46
5.34704
1.47
5.34704
1.48
5.34704
1.49
5.34704
1.5
5.34704
1.51
5.34704
1.52
5.34704
1.53
5.34704
1.54
5.34704
1.55
5.34704
1.56
5.34704
1.57
5.34704
1.58
5.34704
1.59
5.34704
1.6
5.34704
1.61
5.34704
1.62
5.34704
1.63
5.34704
1.64
5.34704
1.65
5.34704
1.66
5.34704
1.67
5.34704
1.68
5.34704
1.69
5.34704
1.7
5.34704
1.71
5.34704
1.72
5.34704
1.73
5.34704
1.74
5.34704
1.75
5.34704
1.76
5.34704
1.77
5.34704
1.78
5.34704
1.79
5.34704
1.8
5.34704
1.81
5.34704
1.82
5.34704
1.83
5.34704
1.84
5.34704
1.85
5.34704
1.86
5.34704
1.87
5.34704
1.88
5.34704
1.89
5.34704
1.9
5.34704
1.91
5.34704
1.92
5.34704
1.93
5.34704
1.94
5.34704
1.95
5.34704
1.96
5.34704
1.97
5.34704
1.98
5.34704
1.99
5.34704
2
5.34704
2.01
0.182846
2.02
0.00784396
2.03
0.000342941
2.04
1.50109e-05
2.05
6.56455e-07
2.06
2.86815e-08
2.07
1.25227e-09
2.08
5.45836e-11
2.09
2.45629e-12
2.1
9.33103e-14
2.11
-4.75026e-14
2.12
-7.78985e-14
2.13
-1.63084e-14
2.14
-3.74763e-14
2.15
-2.81069e-14
2.16
-3.68456e-14
2.17
2.04966e-14
2.18
1.86401e-14
2.19
-2.87018e-14
2.2
-2.44332e-14
2.21
3.43151e-15
2.22
-2.50833e-14
2.23
-1.95909e-14
2.24
1.84392e-14
2.25
-4.85226e-14
2.26
-4.2936e-14
2.27
-6.4319e-14
2.28
-1.82152e-15
2.29
7.12003e-15
2.3
-2.37687e-14
2.31
-4.91171e-14
2.32
-3.54589e-14
2.33
-5.47441e-14
2.34
-3.3471e-14
2.35
-1.83962e-14
2.36
-2.09452e-14
2.37
-4.58663e-14
2.38
-8.37068e-15
2.39
-3.28197e-15
2.4
-1.17743e-14
2.41
-3.41589e-14
2.42
-5.74443e-14
2.43
-2.45981e-14
2.44
-5.07306e-14
2.45
-1.29843e-14
2.46
1.86116e-16
2.47
1.52961e-14
2.48
-6.58476e-14
2.49
-2.75492e-14
