0
0
0.01
6.14915
0.02
6.33631
0.03
6.34422
0.04
6.34457
0.05
6.34458
0.06
6.34458
0.07
6.34458
0.08
6.34458
0.09
6.34458
0.1
6.34458
0.11
6.34458
0.12
6.34458
0.13
6.34458
0.14
6.34458
0.15
6.34458
0.16
6.34458
0.17
6.34458
0.18
6.34458
0.19
6.34458
0.2
6.34458
0.21
6.34458
0.22
6.34458
0.23
6.34458
0.24
6.34458
0.25
6.34458
0.26
6.34458
0.27
6.34458
0.28
6.34458
0.29
6.34458
0.3
6.34458
0.31
6.34458
0.32
6.34458
0.33
6.34458
0.34
6.34458
0.35
6.34458
0.36
6.34458
0.37
6.34458
0.38
6.34458
0.39
6.34458
0.4
6.34458
0.41
6.34458
0.42
6.34458
0.43
6.34458
0.44
6.34458
0.45
6.34458
0.46
6.34458
0.47
6.34458
0.48
6.34458
0.49
6.34458
0.5
6.34458
0.51
6.34458
0.52
6.34458
0.53
6.34458
0.54
6.34458
0.55
6.34458
0.56
6.34458
0.57
6.34458
0.58
6.34458
0.59
6.34458
0.6
6.34458
0.61
6.34458
0.62
6.34458
0.63
6.34458
0.64
6.34458
0.65
6.34458
0.66
6.34458
0.67
6.34458
0.68
6.34458
0.69
6.34458
0.7
6.34458
0.71
6.34458
0.72
6.34458
0.73
6.34458
0.74
6.34458
0.75
6.34458
0.76
6.34458
0.77
6.34458
0.78
6.34458
0.79
6.34458
0.8
6.34458
0.81
6.34458
0.82
6.34458
0.83
6.34458
0.84
6.34458
0.85
6.34458
0.86
6.34458
0.87
6.34458
0.88
6.34458
0.89
6.34458
0.9
6.34458
0.91
6.34458
0.92
6.34458
0.93
6.34458
0.94
6.34458
0.95
6.34458
0.96
6.34458
0.97
6.34458
0.98
6.34458
0.99
6.34458
1
6.34458
1.01
6.34458
1.02
6.34458
1.03
6.34458
1.04
6.34458
1.05
6.34458
1.06
6.34458
1.07
6.34458
1.08
6.34458
1.09
6.34458
1.1
6.34458
1.11
6.34458
1.12
6.34458
1.13
6.34458
1.14
6.34458
1.15
6.34458
1.16
6.34458
1.17
6.34458
1.18
6.34458
1.19
6.34458
1.2
6.34458
1.21
6.34458
1.22
6.34458
1.23
6.34458
1.24
6.34458
1.25
6.34458
1.26
6.34458
1.27
6.34458
1.28
6.34458
1.29
6.34458
1.3
6.34458
1.31
6.34458
1.32
6.34458
1.33
6.34458
1.34
6.34458
1.35
6.34458
1.36
6.34458
1.37
6.34458
1.38
6.34458
1.39
6.34458
1.4
6.34458
1.41
6.34458
1.42
6.34458
1.43
6.34458
1.44
6.34458
1.45
6.34458
1.46
6.34458
1.47
6.34458
1.48
6.34458
1.49
6.34458
1.5
6.34458
1.51
6.34458
1.52
6.34458
1.53
6.34458
1.54
6.34458
1.55
6.34458
1.56
6.34458
1.57
6.34458
1.58
6.34458
1.59
6.34458
1.6
6.34458
1.61
6.34458
1.62
6.34458
1.63
6.34458
1.64
6.34458
1.65
6.34458
1.66
6.34458
1.67
6.34458
1.68
6.34458
1.69
6.34458
1.7
6.34458
1.71
6.34458
1.72
6.34458
1.73
6.34458
1.74
6.34458
1.75
6.34458
1.76
6.34458
1.77
6.34458
1.78
6.34458
1.79
6.34458
1.8
6.34458
1.81
6.34458
1.82
6.34458
1.83
6.34458
1.84
6.34458
1.85
6.34458
1.86
6.34458
1.87
6.34458
1.88
6.34458
1.89
6.34458
1.9
6.34458
1.91
6.34458
1.92
6.34458
1.93
6.34458
1.94
6.34458
1.95
6.34458
1.96
6.34458
1.97
6.34458
1.98
6.34458
1.99
6.34458
2
6.34458
2.01
0.195432
2.02
0.00827429
2.03
0.000360297
2.04
1.57348e-05
2.05
6.87036e-07
2.06
2.99842e-08
2.07
1.30808e-09
2.08
5.70502e-11
2.09
2.6197e-12
2.1
1.49637e-13
2.11
-2.11708e-14
2.12
-6.80494e-15
2.13
2.55822e-14
2.14
-8.0008e-15
2.15
-1.76854e-14
2.16
1.87923e-14
2.17
2.32605e-14
2.18
-7.55282e-15
2.19
1.65822e-14
2.2
3.75004e-14
2.21
3.94109e-14
2.22
2.18797e-14
2.23
4.03006e-14
2.24
-3.79099e-15
2.25
-8.75717e-15
2.26
-1.7344e-14
2.27
1.38974e-14
2.28
1.58431e-14
2.29
9.08427e-15
2.3
3.09401e-14
2.31
-5.38672e-16
2.32
-1.17758e-15
2.33
-7.80665e-16
2.34
2.27073e-14
2.35
1.95634e-14
2.36
2.02157e-14
2.37
2.52623e-15
2.38
5.96667e-15
2.39
2.06263e-14
2.4
1.16298e-14
2.41
3.84881e-14
2.42
-1.68377e-14
2.43
3.11614e-14
2.44
1.82757e-15
2.45
4.86649e-14
2.46
1.95225e-14
2.47
3.44029e-14
2.48
3.37172e-14
2.49
2.0869e-16
