0
0
0.01
6.0199
0.02
6.20087
0.03
6.20854
0.04
6.20888
0.05
6.20889
0.06
6.20889
0.07
6.20889
0.08
6.20889
0.09
6.20889
0.1
6.20889
0.11
6.20889
0.12
6.20889
0.13
6.20889
0.14
6.20889
0.15
6.20889
0.16
6.20889
0.17
6.20889
0.18
6.20889
0.19
6.20889
0.2
6.20889
0.21
6.20889
0.22
6.20889
0.23
6.20889
0.24
6.20889
0.25
6.20889
0.26
6.20889
0.27
6.20889
0.28
6.20889
0.29
6.20889
0.3
6.20889
0.31
6.20889
0.32
6.20889
0.33
6.20889
0.34
6.20889
0.35
6.20889
0.36
6.20889
0.37
6.20889
0.38
6.20889
0.39
6.20889
0.4
6.20889
0.41
6.20889
0.42
6.20889
0.43
6.20889
0.44
6.20889
0.45
6.20889
0.46
6.20889
0.47
6.20889
0.48
6.20889
0.49
6.20889
0.5
6.20889
0.51
6.20889
0.52
6.20889
0.53
6.20889
0.54
6.20889
0.55
6.20889
0.56
6.20889
0.57
6.20889
0.58
6.20889
0.59
6.20889
0.6
6.20889
0.61
6.20889
0.62
6.20889
0.63
6.20889
0.64
6.20889
0.65
6.20889
0.66
6.20889
0.67
6.20889
0.68
6.20889
0.69
6.20889
0.7
6.20889
0.71
6.20889
0.72
6.20889
0.73
6.20889
0.74
6.20889
0.75
6.20889
0.76
6.20889
0.77
6.20889
0.78
6.20889
0.79
6.20889
0.8
6.20889
0.81
6.20889
0.82
6.20889
0.83
6.20889
0.84
6.20889
0.85
6.20889
0.86
6.20889
0.87
6.20889
0.88
6.20889
0.89
6.20889
0.9
6.20889
0.91
6.20889
0.92
6.20889
0.93
6.20889
0.94
6.20889
0.95
6.20889
0.96
6.20889
0.97
6.20889
0.98
6.20889
0.99
6.20889
1
6.20889
1.01
6.20889
1.02
6.20889
1.03
6.20889
1.04
6.20889
1.05
6.20889
1.06
6.20889
1.07
6.20889
1.08
6.20889
1.09
6.20889
1.1
6.20889
1.11
6.20889
1.12
6.20889
1.13
6.20889
1.14
6.20889
1.15
6.20889
1.16
6.20889
1.17
6.20889
1.18
6.20889
1.19
6.20889
1.2
6.20889
1.21
6.20889
1.22
6.20889
1.23
6.20889
1.24
6.20889
1.25
6.20889
1.26
6.20889
1.27
6.20889
1.28
6.20889
1.29
6.20889
1.3
6.20889
1.31
6.20889
1.32
6.20889
1.33
6.20889
1.34
6.20889
1.35
6.20889
1.36
6.20889
1.37
6.20889
1.38
6.20889
1.39
6.20889
1.4
6.20889
1.41
6.20889
1.42
6.20889
1.43
6.20889
1.44
6.20889
1.45
6.20889
1.46
6.20889
1.47
6.20889
1.48
6.20889
1.49
6.20889
1.5
6.20889
1.51
6.20889
1.52
6.20889
1.53
6.20889
1.54
6.20889
1.55
6.20889
1.56
6.20889
1.57
6.20889
1.58
6.20889
1.59
6.20889
1.6
6.20889
1.61
6.20889
1.62
6.20889
1.63
6.20889
1.64
6.20889
1.65
6.20889
1.66
6.20889
1.67
6.20889
1.68
6.20889
1.69
6.20889
1.7
6.20889
1.71
6.20889
1.72
6.20889
1.73
6.20889
1.74
6.20889
1.75
6.20889
1.76
6.20889
1.77
6.20889
1.78
6.20889
1.79
6.20889
1.8
6.20889
1.81
6.20889
1.82
6.20889
1.83
6.20889
1.84
6.20889
1.85
6.20889
1.86
6.20889
1.87
6.20889
1.88
6.20889
1.89
6.20889
1.9
6.20889
1.91
6.20889
1.92
6.20889
1.93
6.20889
1.94
6.20889
1.95
6.20889
1.96
6.20889
1.97
6.20889
1.98
6.20889
1.99
6.20889
2
6.20889
2.01
0.188996
2.02
0.00801929
2.03
0.000350137
2.04
1.53239e-05
2.05
6.70162e-07
2.06
2.92816e-08
2.07
1.27851e-09
2.08
5.58261e-11
2.09
2.468e-12
2.1
1.38489e-13
2.11
-2.41214e-14
2.12
-4.41617e-14
2.13
6.83458e-15
2.14
-9.41244e-14
2.15
-1.06808e-14
2.16
-3.26825e-14
2.17
-6.83291e-14
2.18
-4.69668e-14
2.19
-1.92609e-14
2.2
-2.69085e-14
2.21
2.6396e-14
2.22
-6.50395e-14
2.23
4.30885e-14
2.24
-8.61677e-14
2.25
-8.20582e-15
2.26
1.30204e-14
2.27
-8.86347e-14
2.28
-4.24958e-14
2.29
-2.53614e-14
2.3
-1.61794e-14
2.31
-2.49246e-14
2.32
-1.92949e-14
2.33
-1.26678e-13
2.34
-4.65892e-14
2.35
-1.81119e-14
2.36
-7.80421e-15
2.37
-7.32216e-14
2.38
-1.88014e-14
2.39
-4.49521e-14
2.4
3.74036e-15
2.41
-1.22026e-14
2.42
-7.88123e-15
2.43
-3.74997e-14
2.44
-7.89701e-14
2.45
-1.13409e-14
2.46
5.77943e-16
2.47
-4.08491e-14
2.48
-1.66547e-14
2.49
-5.96202e-15
