0
0
0.01
9.32461
0.02
9.64299
0.03
9.65655
0.04
9.65714
0.05
9.65716
0.06
9.65716
0.07
9.65716
0.08
9.65716
0.09
9.65716
0.1
9.65716
0.11
9.65716
0.12
9.65716
0.13
9.65716
0.14
9.65716
0.15
9.65716
0.16
9.65716
0.17
9.65716
0.18
9.65716
0.19
9.65716
0.2
9.65716
0.21
9.65716
0.22
9.65716
0.23
9.65716
0.24
9.65716
0.25
9.65716
0.26
9.65716
0.27
9.65716
0.28
9.65716
0.29
9.65716
0.3
9.65716
0.31
9.65716
0.32
9.65716
0.33
9.65716
0.34
9.65716
0.35
9.65716
0.36
9.65716
0.37
9.65716
0.38
9.65716
0.39
9.65716
0.4
9.65716
0.41
9.65716
0.42
9.65716
0.43
9.65716
0.44
9.65716
0.45
9.65716
0.46
9.65716
0.47
9.65716
0.48
9.65716
0.49
9.65716
0.5
9.65716
0.51
9.65716
0.52
9.65716
0.53
9.65716
0.54
9.65716
0.55
9.65716
0.56
9.65716
0.57
9.65716
0.58
9.65716
0.59
9.65716
0.6
9.65716
0.61
9.65716
0.62
9.65716
0.63
9.65716
0.64
9.65716
0.65
9.65716
0.66
9.65716
0.67
9.65716
0.68
9.65716
0.69
9.65716
0.7
9.65716
0.71
9.65716
0.72
9.65716
0.73
9.65716
0.74
9.65716
0.75
9.65716
0.76
9.65716
0.77
9.65716
0.78
9.65716
0.79
9.65716
0.8
9.65716
0.81
9.65716
0.82
9.65716
0.83
9.65716
0.84
9.65716
0.85
9.65716
0.86
9.65716
0.87
9.65716
0.88
9.65716
0.89
9.65716
0.9
9.65716
0.91
9.65716
0.92
9.65716
0.93
9.65716
0.94
9.65716
0.95
9.65716
0.96
9.65716
0.97
9.65716
0.98
9.65716
0.99
9.65716
1
9.65716
1.01
9.65716
1.02
9.65716
1.03
9.65716
1.04
9.65716
1.05
9.65716
1.06
9.65716
1.07
9.65716
1.08
9.65716
1.09
9.65716
1.1
9.65716
1.11
9.65716
1.12
9.65716
1.13
9.65716
1.14
9.65716
1.15
9.65716
1.16
9.65716
1.17
9.65716
1.18
9.65716
1.19
9.65716
1.2
9.65716
1.21
9.65716
1.22
9.65716
1.23
9.65716
1.24
9.65716
1.25
9.65716
1.26
9.65716
1.27
9.65716
1.28
9.65716
1.29
9.65716
1.3
9.65716
1.31
9.65716
1.32
9.65716
1.33
9.65716
1.34
9.65716
1.35
9.65716
1.36
9.65716
1.37
9.65716
1.38
9.65716
1.39
9.65716
1.4
9.65716
1.41
9.65716
1.42
9.65716
1.43
9.65716
1.44
9.65716
1.45
9.65716
1.46
9.65716
1.47
9.65716
1.48
9.65716
1.49
9.65716
1.5
9.65716
1.51
9.65716
1.52
9.65716
1.53
9.65716
1.54
9.65716
1.55
9.65716
1.56
9.65716
1.57
9.65716
1.58
9.65716
1.59
9.65716
1.6
9.65716
1.61
9.65716
1.62
9.65716
1.63
9.65716
1.64
9.65716
1.65
9.65716
1.66
9.65716
1.67
9.65716
1.68
9.65716
1.69
9.65716
1.7
9.65716
1.71
9.65716
1.72
9.65716
1.73
9.65716
1.74
9.65716
1.75
9.65716
1.76
9.65716
1.77
9.65716
1.78
9.65716
1.79
9.65716
1.8
9.65716
1.81
9.65716
1.82
9.65716
1.83
9.65716
1.84
9.65716
1.85
9.65716
1.86
9.65716
1.87
9.65716
1.88
9.65716
1.89
9.65716
1.9
9.65716
1.91
9.65716
1.92
9.65716
1.93
9.65716
1.94
9.65716
1.95
9.65716
1.96
9.65716
1.97
9.65716
1.98
9.65716
1.99
9.65716
2
9.65716
2.01
0.332553
2.02
0.0141783
2.03
0.000616132
2.04
2.68431e-05
2.05
1.16988e-06
2.06
5.09871e-08
2.07
2.22217e-09
2.08
9.68307e-11
2.09
4.48676e-12
2.1
1.602e-13
2.11
-5.22547e-14
2.12
-8.11952e-15
2.13
-1.75978e-14
2.14
1.6426e-14
2.15
-1.49248e-14
2.16
2.00577e-14
2.17
-2.45316e-16
2.18
2.55518e-14
2.19
4.08723e-14
2.2
2.63098e-14
2.21
3.63849e-14
2.22
1.21783e-14
2.23
5.87944e-14
2.24
-1.08111e-15
2.25
-1.73272e-15
2.26
-4.80752e-15
2.27
-1.37894e-14
2.28
4.57483e-15
2.29
-6.37282e-15
2.3
-2.39611e-14
2.31
-2.3383e-14
2.32
1.5551e-14
2.33
5.52317e-15
2.34
3.731e-14
2.35
1.88003e-14
2.36
3.28356e-14
2.37
4.65155e-15
2.38
2.4375e-14
2.39
9.99377e-15
2.4
4.3423e-14
2.41
2.99488e-14
2.42
8.30144e-15
2.43
4.1399e-15
2.44
-1.95441e-14
2.45
3.04007e-14
2.46
1.9343e-14
2.47
1.58031e-14
2.48
4.40825e-14
2.49
1.87121e-14
